{
  // BASIC //
  "basic": {
    "public_transport": [
      { "symbol": "option_1", "value": 1, "price": 4550 },
      { "symbol": "option_2", "value": 2, "price": 9500 }
    ],

    "bike_sharing": [
      { "symbol": "option_0", "value": 0 },
      { "symbol": "option_1", "value": 1, "price": 1500 }
    ],

    "multipliers": [
      0.8, 0.85, 0.88, 0.95, 1.0, 1.05, 1.08
    ]
  },

  // URBAN //
  "urban": {
    "public_transport": [
      { "symbol": "option_2", "value": 2, "price": 9550 }
    ],

    "bike_sharing": [
      { "symbol": "option_0", "value": 0 },
      { "symbol": "option_1", "value": 1, "price": 1500 }
    ],

    "taxi": [
      { "symbol": "option_1", "value": 1, "price": 4000 },
      { "symbol": "option_2", "value": 2, "price": 8000 },
      { "symbol": "option_3", "value": 3, "price": 12000 }
    ],

    "multipliers": [
      0.8, 0.85, 0.88, 0.95, 1.0, 1.05, 1.08
    ]
  },

  "extra": {
    "public_transport": [
      { "symbol": "option_2", "value": 2, "price": 9550 }
    ],

    "bike_sharing": [
      { "symbol": "option_1", "value": 1, "price": 1500 }
    ],

    "taxi": [
      { "symbol": "option_0", "value": 0 },
      { "symbol": "option_2", "value": 2, "price": 8000 },
      { "symbol": "option_3", "value": 3, "price": 12000 },
      { "symbol": "option_3", "value": 4, "price": 16000 },
      { "symbol": "option_8", "value": 8, "price": 32000 },
      { "symbol": "option_10", "value": 10, "price": 40000 }
    ],

    "car_sharing": [
      { "symbol": "option_0", "value": 0 },
      { "symbol": "option_1", "value": 1, "price": 3500 },
      { "symbol": "option_2", "value": 2, "price": 10000 },
      { "symbol": "option_3", "value": 3, "price": 15000 },
      { "symbol": "option_8", "value": 8, "price": 28000 },
      { "symbol": "option_12", "value": 12, "price": 42000 }
    ],

    "multipliers": [
      0.8, 0.85, 0.88, 0.95, 1.0, 1.05, 1.08
    ]
  },

  "flexible": {
    "public_transport": [
      { "symbol": "option_0", "value": 0 },
      { "symbol": "option_1", "value": 1, "price": 4550 },
      { "symbol": "option_2", "value": 2, "price": 9550 }
    ],

    "bike_sharing": [
      { "symbol": "option_0", "value": 0 },
      { "symbol": "option_1", "value": 1, "price": 1500 }
    ],

    "taxi": [
      { "symbol": "option_0", "value": 0 },
      { "symbol": "option_1", "value": 1, "price": 4000 },
      { "symbol": "option_2", "value": 2, "price": 8000 },
      { "symbol": "option_3", "value": 3, "price": 12000 },
      { "symbol": "option_4", "value": 4, "price": 16000 },
      { "symbol": "option_8", "value": 8, "price": 32000 },
      { "symbol": "option_10", "value": 10, "price": 40000 }
    ],

    "car_sharing": [
      { "symbol": "option_0", "value": 0 },
      { "symbol": "option_1", "value": 1, "price": 3500 },
      { "symbol": "option_2", "value": 2, "price": 10000 },
      { "symbol": "option_3", "value": 3, "price": 15000 },
      { "symbol": "option_8", "value": 8, "price": 28000 },
      { "symbol": "option_12", "value": 12, "price": 42000 }
    ]
  }
}